module bitbucket.org/cachak/recipes-api

go 1.18

require (
	github.com/gin-contrib/cors v1.3.1
	github.com/gin-gonic/gin v1.7.7
	github.com/rs/xid v1.4.0
	go.mongodb.org/mongo-driver v1.4.5
)

require (
	github.com/aws/aws-sdk-go v1.34.28 // indirect
	github.com/gin-contrib/sse v0.1.0 // indirect
	github.com/go-playground/locales v0.13.0 // indirect
	github.com/go-playground/universal-translator v0.17.0 // indirect
	github.com/go-playground/validator/v10 v10.4.1 // indirect
	github.com/go-redis/redis v6.15.9+incompatible // indirect
	github.com/go-stack/stack v1.8.0 // indirect
	github.com/golang/protobuf v1.3.3 // indirect
	github.com/golang/snappy v0.0.1 // indirect
	github.com/jmespath/go-jmespath v0.4.0 // indirect
	github.com/json-iterator/go v1.1.9 // indirect
	github.com/klauspost/compress v1.9.5 // indirect
	github.com/leodido/go-urn v1.2.0 // indirect
	github.com/mattn/go-isatty v0.0.12 // indirect
	github.com/modern-go/concurrent v0.0.0-20180228061459-e0a39a4cb421 // indirect
	github.com/modern-go/reflect2 v0.0.0-20180701023420-4b7aa43c6742 // indirect
	github.com/pkg/errors v0.9.1 // indirect
	github.com/ugorji/go/codec v1.1.7 // indirect
	github.com/xdg/scram v0.0.0-20180814205039-7eeb5667e42c // indirect
	github.com/xdg/stringprep v0.0.0-20180714160509-73f8eece6fdc // indirect
	golang.org/x/crypto v0.0.0-20201216223049-8b5274cf687f // indirect
	golang.org/x/sync v0.0.0-20190911185100-cd5d95a43a6e // indirect
	golang.org/x/sys v0.0.0-20200116001909-b77594299b42 // indirect
	golang.org/x/text v0.3.3 // indirect
	gopkg.in/yaml.v2 v2.2.8 // indirect
)
